Digitalteknik - Quartus Laboration/vhdltutorial/simulation/qsim/first_test.msim.vcd
$comment
	File created using the following command:
		vcd file first_test.msim.vcd -direction
$end
$date
	Mon Feb 28 16:43:32 2022
$end
$version
	ModelSim Version 10.5b
$end
$timescale
	1ps
$end

$scope module first_test_vhd_vec_tst $end
$var wire 1 ! clk $end
$var wire 1 " j $end
$var wire 1 # k $end
$var wire 1 $ Q $end

$scope module i1 $end
$var wire 1 % gnd $end
$var wire 1 & vcc $end
$var wire 1 ' unknown $end
$var wire 1 ( devoe $end
$var wire 1 ) devclrn $end
$var wire 1 * devpor $end
$var wire 1 + ww_devoe $end
$var wire 1 , ww_devclrn $end
$var wire 1 - ww_devpor $end
$var wire 1 . ww_Q $end
$var wire 1 / ww_clk $end
$var wire 1 0 ww_j $end
$var wire 1 1 ww_k $end
$var wire 1 2 \Q~output_o\ $end
$var wire 1 3 \clk~input_o\ $end
$var wire 1 4 \j~input_o\ $end
$var wire 1 5 \k~input_o\ $end
$var wire 1 6 \inst|iq~0_combout\ $end
$var wire 1 7 \inst|iq~q\ $end
$upscope $end
$upscope $end
$enddefinitions $end
#0
$dumpvars
0!
0"
0#
0$
0%
1&
x'
1(
1)
1*
1+
1,
1-
0.
0/
00
01
02
03
04
05
06
07
$end
#5000000
1!
1/
13
#10000000
0!
1"
0/
10
14
03
16
#15000000
1!
1/
13
17
12
1.
1$
#16000000
0"
00
04
#20000000
0!
1#
0/
11
15
03
06
#25000000
1!
1/
13
07
02
0.
0$
#26000000
0#
01
05
#30000000
0!
0/
03
#35000000
1!
1/
13
#40000000
0!
1#
1"
0/
11
10
14
15
03
16
#45000000
1!
1/
13
17
06
12
1.
1$
#46000000
0#
0"
01
00
04
05
16
#50000000
0!
0/
03
#55000000
1!
1/
13
#60000000
0!
0/
03
#65000000
1!
1/
13
#70000000
0!
0/
03
#75000000
1!
1/
13
#80000000
0!
0/
03
#85000000
1!
1/
13
#90000000
0!
0/
03
#95000000
1!
1/
13
