Digitalteknik - Quartus Laboration/simulation/qsim/lab3uppgift1.msim.vcd
$comment
	File created using the following command:
		vcd file lab3uppgift1.msim.vcd -direction
$end
$date
	Mon Feb 28 16:01:57 2022
$end
$version
	ModelSim Version 10.5b
$end
$timescale
	1ps
$end

$scope module lab3uppgift1_vhd_vec_tst $end
$var wire 1 ! A $end
$var wire 1 " B $end
$var wire 1 # C $end
$var wire 1 $ CLK $end
$var wire 1 % CLR $end
$var wire 1 & D $end
$var wire 1 ' J $end
$var wire 1 ( K $end
$var wire 1 ) L $end
$var wire 1 * P $end
$var wire 1 + Q $end
$var wire 1 , QA $end
$var wire 1 - QB $end
$var wire 1 . QC $end
$var wire 1 / QD $end
$var wire 1 0 RCO $end
$var wire 1 1 T $end

$scope module i1 $end
$var wire 1 2 gnd $end
$var wire 1 3 vcc $end
$var wire 1 4 unknown $end
$var wire 1 5 devoe $end
$var wire 1 6 devclrn $end
$var wire 1 7 devpor $end
$var wire 1 8 ww_devoe $end
$var wire 1 9 ww_devclrn $end
$var wire 1 : ww_devpor $end
$var wire 1 ; ww_QA $end
$var wire 1 < ww_C $end
$var wire 1 = ww_B $end
$var wire 1 > ww_A $end
$var wire 1 ? ww_T $end
$var wire 1 @ ww_D $end
$var wire 1 A ww_CLR $end
$var wire 1 B ww_CLK $end
$var wire 1 C ww_P $end
$var wire 1 D ww_L $end
$var wire 1 E ww_QB $end
$var wire 1 F ww_QC $end
$var wire 1 G ww_QD $end
$var wire 1 H ww_RCO $end
$var wire 1 I ww_Q $end
$var wire 1 J ww_K $end
$var wire 1 K ww_J $end
$var wire 1 L \CLK~inputclkctrl_INCLK_bus\ [3] $end
$var wire 1 M \CLK~inputclkctrl_INCLK_bus\ [2] $end
$var wire 1 N \CLK~inputclkctrl_INCLK_bus\ [1] $end
$var wire 1 O \CLK~inputclkctrl_INCLK_bus\ [0] $end
$var wire 1 P \QA~output_o\ $end
$var wire 1 Q \QB~output_o\ $end
$var wire 1 R \QC~output_o\ $end
$var wire 1 S \QD~output_o\ $end
$var wire 1 T \RCO~output_o\ $end
$var wire 1 U \Q~output_o\ $end
$var wire 1 V \CLK~input_o\ $end
$var wire 1 W \CLK~inputclkctrl_outclk\ $end
$var wire 1 X \L~input_o\ $end
$var wire 1 Y \CLR~input_o\ $end
$var wire 1 Z \A~input_o\ $end
$var wire 1 [ \T~input_o\ $end
$var wire 1 \ \P~input_o\ $end
$var wire 1 ] \inst1|sub|72~combout\ $end
$var wire 1 ^ \inst1|sub|68~0_combout\ $end
$var wire 1 _ \inst1|sub|34~q\ $end
$var wire 1 ` \B~input_o\ $end
$var wire 1 a \inst1|sub|109~combout\ $end
$var wire 1 b \inst1|sub|115~0_combout\ $end
$var wire 1 c \inst1|sub|111~q\ $end
$var wire 1 d \C~input_o\ $end
$var wire 1 e \inst1|sub|119~0_combout\ $end
$var wire 1 f \inst1|sub|126~0_combout\ $end
$var wire 1 g \inst1|sub|126~1_combout\ $end
$var wire 1 h \inst1|sub|122~q\ $end
$var wire 1 i \D~input_o\ $end
$var wire 1 j \inst1|sub|131~combout\ $end
$var wire 1 k \inst1|sub|137~0_combout\ $end
$var wire 1 l \inst1|sub|134~q\ $end
$var wire 1 m \inst1|sub|128~0_combout\ $end
$var wire 1 n \inst1|sub|128~1_combout\ $end
$var wire 1 o \J~input_o\ $end
$var wire 1 p \K~input_o\ $end
$var wire 1 q \inst3~0_combout\ $end
$var wire 1 r \inst3~q\ $end
$upscope $end
$upscope $end
$enddefinitions $end
#0
$dumpvars
0!
0"
0#
1$
1%
0&
0'
0(
1)
0*
0+
0,
0-
0.
0/
00
01
02
13
x4
15
16
17
18
19
1:
0;
0<
0=
0>
0?
0@
1A
1B
0C
1D
0E
0F
0G
0H
0I
0J
0K
0P
0Q
0R
0S
0T
0U
1V
1W
1X
1Y
0Z
0[
0\
0]
0^
0_
0`
0a
0b
0c
0d
0e
0f
0g
0h
0i
0j
0k
0l
0m
0n
0o
0p
0q
0r
1L
1M
1N
1O
$end
#4000000
1#
1'
1<
1K
1o
1d
1q
#14000000
0$
0%
0B
0A
0Y
0V
0O
0W
#16000000
1$
1B
1V
1O
1W
1r
1U
1I
1+
#18000000
0$
1%
0#
0'
0)
0B
1A
0<
0K
0D
0X
0o
0d
1Y
0V
0O
0W
#20000000
1$
1B
1V
1O
1W
#22000000
0$
1)
1*
0B
1D
1C
1\
1X
0V
0O
0W
#24000000
1$
11
1B
1?
1[
1V
1O
1]
1^
1W
1_
0]
1a
1b
0^
1P
1;
1,
#26000000
0$
0B
0V
0O
0W
#28000000
1$
1B
1V
1O
1W
0_
1c
1]
1^
1Q
0P
1E
0;
1-
0,
#30000000
0$
0B
0V
0O
0W
#32000000
1$
1B
1V
1O
1W
1_
0]
0a
1e
1f
0b
0^
1P
1g
1;
1,
#34000000
0$
0B
0V
0O
0W
#36000000
1$
1B
1V
1O
1W
0_
0c
1h
0f
1j
1]
0e
1f
0j
1^
1k
0g
1R
0Q
0P
0k
1g
1F
0E
0;
1.
0-
0,
#38000000
0$
0B
0V
0O
0W
#40000000
1$
1B
1V
1O
1W
1_
0]
1a
1b
0^
1P
1;
1,
#42000000
0$
0B
0V
0O
0W
#44000000
1$
1B
1V
1O
1W
0_
1c
1]
1^
1Q
0P
1E
0;
1-
0,
#46000000
0$
0B
0V
0O
0W
#48000000
1$
1B
1V
1O
1W
1_
0]
0a
1e
0f
1j
0b
0^
1P
1k
0g
1;
1,
#50000000
0$
0B
0V
0O
0W
#52000000
1$
01
1B
0?
0[
1V
1O
1]
1a
0e
1f
0j
1b
1^
1W
0k
1g
0h
1l
0f
1j
1k
0g
1S
0R
1G
0F
1/
0.
#54000000
0$
0B
0V
0O
0W
#56000000
1$
1B
1V
1O
1W
#58000000
0$
0B
0V
0O
0W
#60000000
1$
0*
1B
0C
0\
1V
1O
1W
#62000000
0$
0B
0V
0O
0W
#64000000
1$
1B
1V
1O
1W
#66000000
0$
0B
0V
0O
0W
#68000000
1$
1B
1V
1O
1W
#70000000
0$
0B
0V
0O
0W
#72000000
1$
1B
1V
1O
1W
#74000000
0$
0B
0V
0O
0W
#76000000
1$
1B
1V
1O
1W
#78000000
0$
0B
0V
0O
0W
#80000000
1$
1B
1V
1O
1W
#82000000
0$
0B
0V
0O
0W
#84000000
1$
1B
1V
1O
1W
#86000000
0$
0B
0V
0O
0W
#88000000
1$
1B
1V
1O
1W
#90000000
0$
0B
0V
0O
0W
#92000000
1$
1B
1V
1O
1W
#94000000
0$
0B
0V
0O
0W
#96000000
1$
1B
1V
1O
1W
#98000000
0$
0B
0V
0O
0W
