Digitalteknik - Quartus Laboration/uppgift5/skal_lab3_2022/simulation/qsim/DE0_NANO.msim.vcd
$comment
	File created using the following command:
		vcd file DE0_NANO.msim.vcd -direction
$end
$date
	Mon Mar 07 14:17:48 2022
$end
$version
	ModelSim Version 10.5b
$end
$timescale
	1ps
$end

$scope module block6_vhd_vec_tst $end
$var wire 1 ! A $end
$var wire 1 " A_out $end
$var wire 1 # B $end
$var wire 1 $ C $end
$var wire 1 % CLEAR $end
$var wire 1 & CLK50M $end
$var wire 1 ' clk_163 $end
$var wire 1 ( D $end
$var wire 1 ) jk0 $end
$var wire 1 * jk1 $end
$var wire 1 + Klar $end
$var wire 1 , klar1 $end
$var wire 1 - Ladda $end
$var wire 1 . QA $end
$var wire 1 / QB $end
$var wire 1 0 QC $end
$var wire 1 1 QD $end
$var wire 1 2 Rakna $end
$var wire 1 3 Start $end
$var wire 1 4 SW_CLK $end

$scope module i1 $end
$var wire 1 5 gnd $end
$var wire 1 6 vcc $end
$var wire 1 7 unknown $end
$var wire 1 8 devoe $end
$var wire 1 9 devclrn $end
$var wire 1 : devpor $end
$var wire 1 ; ww_devoe $end
$var wire 1 < ww_devclrn $end
$var wire 1 = ww_devpor $end
$var wire 1 > ww_Ladda $end
$var wire 1 ? ww_CLK50M $end
$var wire 1 @ ww_C $end
$var wire 1 A ww_B $end
$var wire 1 B ww_A $end
$var wire 1 C ww_D $end
$var wire 1 D ww_CLEAR $end
$var wire 1 E ww_Start $end
$var wire 1 F ww_Rakna $end
$var wire 1 G ww_A_out $end
$var wire 1 H ww_clk_163 $end
$var wire 1 I ww_jk1 $end
$var wire 1 J ww_jk0 $end
$var wire 1 K ww_QA $end
$var wire 1 L ww_QB $end
$var wire 1 M ww_QC $end
$var wire 1 N ww_QD $end
$var wire 1 O ww_klar1 $end
$var wire 1 P ww_Klar $end
$var wire 1 Q ww_SW_CLK $end
$var wire 1 R \inst|clk_divider[6]~clkctrl_INCLK_bus\ [3] $end
$var wire 1 S \inst|clk_divider[6]~clkctrl_INCLK_bus\ [2] $end
$var wire 1 T \inst|clk_divider[6]~clkctrl_INCLK_bus\ [1] $end
$var wire 1 U \inst|clk_divider[6]~clkctrl_INCLK_bus\ [0] $end
$var wire 1 V \CLK50M~inputclkctrl_INCLK_bus\ [3] $end
$var wire 1 W \CLK50M~inputclkctrl_INCLK_bus\ [2] $end
$var wire 1 X \CLK50M~inputclkctrl_INCLK_bus\ [1] $end
$var wire 1 Y \CLK50M~inputclkctrl_INCLK_bus\ [0] $end
$var wire 1 Z \Klar~input_o\ $end
$var wire 1 [ \SW_CLK~input_o\ $end
$var wire 1 \ \Ladda~output_o\ $end
$var wire 1 ] \Rakna~output_o\ $end
$var wire 1 ^ \A_out~output_o\ $end
$var wire 1 _ \clk_163~output_o\ $end
$var wire 1 ` \jk1~output_o\ $end
$var wire 1 a \jk0~output_o\ $end
$var wire 1 b \QA~output_o\ $end
$var wire 1 c \QB~output_o\ $end
$var wire 1 d \QC~output_o\ $end
$var wire 1 e \QD~output_o\ $end
$var wire 1 f \klar1~output_o\ $end
$var wire 1 g \CLK50M~input_o\ $end
$var wire 1 h \CLK50M~inputclkctrl_outclk\ $end
$var wire 1 i \inst|clk_divider[0]~18_combout\ $end
$var wire 1 j \inst|clk_divider[1]~6_combout\ $end
$var wire 1 k \inst|clk_divider[1]~7\ $end
$var wire 1 l \inst|clk_divider[2]~8_combout\ $end
$var wire 1 m \inst|clk_divider[2]~9\ $end
$var wire 1 n \inst|clk_divider[3]~10_combout\ $end
$var wire 1 o \inst|clk_divider[3]~11\ $end
$var wire 1 p \inst|clk_divider[4]~12_combout\ $end
$var wire 1 q \inst|clk_divider[4]~13\ $end
$var wire 1 r \inst|clk_divider[5]~14_combout\ $end
$var wire 1 s \inst|clk_divider[5]~15\ $end
$var wire 1 t \inst|clk_divider[6]~16_combout\ $end
$var wire 1 u \inst|clk_divider[6]~clkctrl_outclk\ $end
$var wire 1 v \Start~input_o\ $end
$var wire 1 w \CLEAR~input_o\ $end
$var wire 1 x \D~input_o\ $end
$var wire 1 y \C~input_o\ $end
$var wire 1 z \B~input_o\ $end
$var wire 1 { \A~input_o\ $end
$var wire 1 | \inst4|sub|68~0_combout\ $end
$var wire 1 } \inst4|sub|68~1_combout\ $end
$var wire 1 ~ \inst4|sub|34~q\ $end
$var wire 1 !! \inst4|sub|109~combout\ $end
$var wire 1 "! \inst4|sub|115~0_combout\ $end
$var wire 1 #! \inst4|sub|111~q\ $end
$var wire 1 $! \inst4|sub|128~0_combout\ $end
$var wire 1 %! \inst4|sub|120~combout\ $end
$var wire 1 &! \inst4|sub|126~0_combout\ $end
$var wire 1 '! \inst4|sub|122~q\ $end
$var wire 1 (! \inst24~combout\ $end
$var wire 1 )! \inst4|sub|131~combout\ $end
$var wire 1 *! \inst4|sub|137~0_combout\ $end
$var wire 1 +! \inst4|sub|134~q\ $end
$var wire 1 ,! \inst4|sub|128~combout\ $end
$var wire 1 -! \inst2|iq~0_combout\ $end
$var wire 1 .! \inst2|iq~q\ $end
$var wire 1 /! \inst3|iq~0_combout\ $end
$var wire 1 0! \inst3|iq~q\ $end
$var wire 1 1! \inst11~combout\ $end
$var wire 1 2! \inst|clk_divider\ [25] $end
$var wire 1 3! \inst|clk_divider\ [24] $end
$var wire 1 4! \inst|clk_divider\ [23] $end
$var wire 1 5! \inst|clk_divider\ [22] $end
$var wire 1 6! \inst|clk_divider\ [21] $end
$var wire 1 7! \inst|clk_divider\ [20] $end
$var wire 1 8! \inst|clk_divider\ [19] $end
$var wire 1 9! \inst|clk_divider\ [18] $end
$var wire 1 :! \inst|clk_divider\ [17] $end
$var wire 1 ;! \inst|clk_divider\ [16] $end
$var wire 1 <! \inst|clk_divider\ [15] $end
$var wire 1 =! \inst|clk_divider\ [14] $end
$var wire 1 >! \inst|clk_divider\ [13] $end
$var wire 1 ?! \inst|clk_divider\ [12] $end
$var wire 1 @! \inst|clk_divider\ [11] $end
$var wire 1 A! \inst|clk_divider\ [10] $end
$var wire 1 B! \inst|clk_divider\ [9] $end
$var wire 1 C! \inst|clk_divider\ [8] $end
$var wire 1 D! \inst|clk_divider\ [7] $end
$var wire 1 E! \inst|clk_divider\ [6] $end
$var wire 1 F! \inst|clk_divider\ [5] $end
$var wire 1 G! \inst|clk_divider\ [4] $end
$var wire 1 H! \inst|clk_divider\ [3] $end
$var wire 1 I! \inst|clk_divider\ [2] $end
$var wire 1 J! \inst|clk_divider\ [1] $end
$var wire 1 K! \inst|clk_divider\ [0] $end
$var wire 1 L! \inst4|sub|ALT_INV_128~combout\ $end
$var wire 1 M! \ALT_INV_inst24~combout\ $end
$var wire 1 N! \ALT_INV_inst11~combout\ $end
$upscope $end
$upscope $end
$enddefinitions $end
#0
$dumpvars
1!
1"
0#
1$
1%
0&
0'
1(
0)
0*
0+
0,
1-
0.
0/
00
01
02
03
04
05
16
x7
18
19
1:
1;
1<
1=
1>
0?
1@
0A
1B
1C
1D
0E
0F
1G
0H
0I
0J
0K
0L
0M
0N
0O
0P
0Q
0Z
0[
1\
0]
1^
0_
0`
0a
0b
0c
0d
0e
0f
0g
0h
1i
0j
0k
0l
1m
0n
0o
0p
1q
0r
0s
0t
0u
0v
1w
1x
1y
0z
1{
1|
0}
0~
0!!
0"!
0#!
0$!
0%!
0&!
0'!
0(!
0)!
0*!
0+!
1,!
0-!
0.!
0/!
00!
01!
0L!
1M!
1N!
x2!
x3!
x4!
x5!
x6!
x7!
x8!
x9!
x:!
x;!
x<!
x=!
x>!
x?!
x@!
xA!
xB!
xC!
xD!
0E!
0F!
0G!
0H!
0I!
0J!
0K!
1V
1W
1X
0Y
1R
1S
1T
0U
$end
#10000
1&
1?
1g
1Y
1h
1K!
0i
1j
#20000
0&
0?
0g
0Y
0h
#30000
1&
1?
1g
1Y
1h
0K!
1J!
1i
#40000
0&
0?
0g
0Y
0h
#50000
1&
1?
1g
1Y
1h
1K!
0i
0j
1k
1l
#60000
0&
0?
0g
0Y
0h
#70000
1&
1?
1g
1Y
1h
0K!
0J!
1I!
0l
0m
1i
0k
1l
1m
1n
0n
#80000
0&
0?
0g
0Y
0h
#90000
1&
1?
1g
1Y
1h
1K!
0i
1j
#100000
0&
0?
0g
0Y
0h
#110000
1&
1?
1g
1Y
1h
0K!
1J!
1i
#120000
0&
0?
0g
0Y
0h
#130000
1&
1?
1g
1Y
1h
1K!
0i
0j
1k
0l
0m
1n
#140000
0&
0?
0g
0Y
0h
#150000
1&
1?
1g
1Y
1h
0K!
0J!
0I!
1H!
0n
1o
1l
1m
1i
0k
0l
1n
0o
1p
0p
#160000
0&
0?
0g
0Y
0h
#170000
1&
1?
1g
1Y
1h
1K!
0i
1j
#180000
0&
0?
0g
0Y
0h
#190000
1&
1?
1g
1Y
1h
0K!
1J!
1i
#200000
0&
0?
0g
0Y
0h
#210000
1&
1?
1g
1Y
1h
1K!
0i
0j
1k
1l
#220000
0&
0?
0g
0Y
0h
#230000
1&
1?
1g
1Y
1h
0K!
0J!
1I!
0l
0m
1i
0k
1l
1m
0n
1o
1p
1n
0o
0p
#240000
0&
0?
0g
0Y
0h
#250000
1&
1?
1g
1Y
1h
1K!
0i
1j
#260000
0&
0?
0g
0Y
0h
#270000
1&
1?
1g
1Y
1h
0K!
1J!
1i
#280000
0&
0?
0g
0Y
0h
#290000
1&
1?
1g
1Y
1h
1K!
0i
0j
1k
0l
0m
0n
1o
1p
#300000
0&
0?
0g
0Y
0h
#310000
1&
1?
1g
1Y
1h
0K!
0J!
0I!
0H!
1G!
0p
0q
1n
0o
1l
1m
1i
0k
0l
0n
1p
1q
1r
0r
#320000
0&
0?
0g
0Y
0h
#330000
1&
1?
1g
1Y
1h
1K!
0i
1j
#340000
0&
0?
0g
0Y
0h
#350000
1&
1?
1g
1Y
1h
0K!
1J!
1i
#360000
0&
0?
0g
0Y
0h
#370000
1&
1?
1g
1Y
1h
1K!
0i
0j
1k
1l
#380000
0&
0?
0g
0Y
0h
#390000
1&
1?
1g
1Y
1h
0K!
0J!
1I!
0l
0m
1i
0k
1l
1m
1n
0n
#400000
0&
0?
0g
0Y
0h
#410000
1&
1?
1g
1Y
1h
1K!
0i
1j
#420000
0&
0?
0g
0Y
0h
#430000
1&
1?
1g
1Y
1h
0K!
1J!
1i
#440000
0&
0?
0g
0Y
0h
#450000
1&
1?
1g
1Y
1h
1K!
0i
0j
1k
0l
0m
1n
#460000
0&
0?
0g
0Y
0h
#470000
1&
1?
1g
1Y
1h
0K!
0J!
0I!
1H!
0n
1o
1l
1m
1i
0k
0l
1n
0o
0p
0q
1r
1p
1q
0r
#480000
0&
0?
0g
0Y
0h
#490000
1&
1?
1g
1Y
1h
1K!
0i
1j
#500000
0&
0?
0g
0Y
0h
#510000
1&
1?
1g
1Y
1h
0K!
1J!
1i
#520000
0&
0?
0g
0Y
0h
#530000
1&
1?
1g
1Y
1h
1K!
0i
0j
1k
1l
#540000
0&
0?
0g
0Y
0h
#550000
1&
1?
1g
1Y
1h
0K!
0J!
1I!
0l
0m
1i
0k
1l
1m
0n
1o
0p
0q
1n
0o
1p
1q
1r
0r
#560000
0&
0?
0g
0Y
0h
#570000
1&
1?
1g
1Y
1h
1K!
0i
1j
#580000
0&
0?
0g
0Y
0h
#590000
1&
1?
1g
1Y
1h
0K!
1J!
1i
#600000
0&
0?
0g
0Y
0h
#610000
1&
1?
1g
1Y
1h
1K!
0i
0j
1k
0l
0m
0n
1o
0p
0q
1r
#620000
0&
0?
0g
0Y
0h
#630000
1&
1?
1g
1Y
1h
0K!
0J!
0I!
0H!
0G!
1F!
0r
1s
1p
1q
1n
0o
1l
1m
1i
0k
0l
0n
0p
1r
0s
1t
0t
#640000
0&
0?
0g
0Y
0h
#650000
1&
1?
1g
1Y
1h
1K!
0i
1j
#660000
0&
0?
0g
0Y
0h
#670000
1&
1?
1g
1Y
1h
0K!
1J!
1i
#680000
0&
0?
0g
0Y
0h
#690000
1&
1?
1g
1Y
1h
1K!
0i
0j
1k
1l
#700000
0&
0?
0g
0Y
0h
#710000
1&
1?
1g
1Y
1h
0K!
0J!
1I!
0l
0m
1i
0k
1l
1m
1n
0n
#720000
0&
0?
0g
0Y
0h
#730000
1&
1?
1g
1Y
1h
1K!
0i
1j
#740000
0&
0?
0g
0Y
0h
#750000
1&
1?
1g
1Y
1h
0K!
1J!
1i
#760000
0&
0?
0g
0Y
0h
#770000
1&
1?
1g
1Y
1h
1K!
0i
0j
1k
0l
0m
1n
#780000
0&
0?
0g
0Y
0h
#790000
1&
1?
1g
1Y
1h
0K!
0J!
0I!
1H!
0n
1o
1l
1m
1i
0k
0l
1n
0o
1p
0p
#800000
0&
0?
0g
0Y
0h
#810000
1&
1?
1g
1Y
1h
1K!
0i
1j
#820000
0&
0?
0g
0Y
0h
#830000
1&
1?
1g
1Y
1h
0K!
1J!
1i
#840000
0&
0?
0g
0Y
0h
#850000
1&
1?
1g
1Y
1h
1K!
0i
0j
1k
1l
#860000
0&
0?
0g
0Y
0h
#870000
1&
1?
1g
1Y
1h
0K!
0J!
1I!
0l
0m
1i
0k
1l
1m
0n
1o
1p
1n
0o
0p
#880000
0&
0?
0g
0Y
0h
#890000
1&
1?
1g
1Y
1h
1K!
0i
1j
#900000
0&
0?
0g
0Y
0h
#910000
1&
1?
1g
1Y
1h
0K!
1J!
1i
#920000
0&
0?
0g
0Y
0h
#930000
1&
1?
1g
1Y
1h
1K!
0i
0j
1k
0l
0m
0n
1o
1p
#940000
0&
0?
0g
0Y
0h
#950000
1&
1?
1g
1Y
1h
0K!
0J!
0I!
0H!
1G!
0p
0q
1n
0o
1l
1m
1i
0k
0l
0n
1p
1q
0r
1s
1t
1r
0s
0t
#960000
0&
0?
0g
0Y
0h
#970000
1&
1?
1g
1Y
1h
1K!
0i
1j
#980000
0&
0?
0g
0Y
0h
#990000
1&
1?
1g
1Y
1h
0K!
1J!
1i
#1000000
0&
0?
0g
0Y
0h
#1010000
1&
1?
1g
1Y
1h
1K!
0i
0j
1k
1l
#1020000
0&
0?
0g
0Y
0h
#1030000
1&
1?
1g
1Y
1h
0K!
0J!
1I!
0l
0m
1i
0k
1l
1m
1n
0n
#1040000
0&
0?
0g
0Y
0h
#1050000
1&
1?
1g
1Y
1h
1K!
0i
1j
#1060000
0&
0?
0g
0Y
0h
#1070000
1&
1?
1g
1Y
1h
0K!
1J!
1i
#1080000
0&
0?
0g
0Y
0h
#1090000
1&
1?
1g
1Y
1h
1K!
0i
0j
1k
0l
0m
1n
#1100000
0&
0?
0g
0Y
0h
#1110000
1&
1?
1g
1Y
1h
0K!
0J!
0I!
1H!
0n
1o
1l
1m
1i
0k
0l
1n
0o
0p
0q
0r
1s
1p
1q
1r
0s
1t
0t
#1120000
0&
0?
0g
0Y
0h
#1130000
1&
1?
1g
1Y
1h
1K!
0i
1j
#1140000
0&
0?
0g
0Y
0h
#1150000
1&
1?
1g
1Y
1h
0K!
1J!
1i
#1160000
0&
0?
0g
0Y
0h
#1170000
1&
1?
1g
1Y
1h
1K!
0i
0j
1k
1l
#1180000
0&
0?
0g
0Y
0h
#1190000
1&
1?
1g
1Y
1h
0K!
0J!
1I!
0l
0m
1i
0k
1l
1m
0n
1o
0p
0q
1n
0o
1p
1q
0r
1s
1t
1r
0s
0t
#1200000
0&
0?
0g
0Y
0h
#1210000
1&
1?
1g
1Y
1h
1K!
0i
1j
#1220000
0&
0?
0g
0Y
0h
#1230000
1&
1?
1g
1Y
1h
0K!
1J!
1i
#1240000
0&
0?
0g
0Y
0h
#1250000
1&
1?
1g
1Y
1h
1K!
0i
0j
1k
0l
0m
0n
1o
0p
0q
0r
1s
1t
#1260000
0&
0?
0g
0Y
0h
#1270000
1&
1?
1g
1Y
1h
0K!
0J!
0I!
0H!
0G!
0F!
1E!
1U
0t
1r
0s
1p
1q
1n
0o
1l
1m
1i
0k
0l
0n
0p
0r
1t
1u
1_
1H
1'
#1280000
0&
0?
0g
0Y
0h
#1290000
1&
1?
1g
1Y
1h
1K!
0i
1j
#1300000
0&
0?
0g
0Y
0h
#1310000
1&
1?
1g
1Y
1h
0K!
1J!
1i
#1320000
0&
0?
0g
0Y
0h
#1330000
1&
1?
1g
1Y
1h
1K!
0i
0j
1k
1l
#1340000
0&
0?
0g
0Y
0h
#1350000
1&
1?
1g
1Y
1h
0K!
0J!
1I!
0l
0m
1i
0k
1l
1m
1n
0n
#1360000
0&
0?
0g
0Y
0h
#1370000
1&
1?
1g
1Y
1h
1K!
0i
1j
#1380000
0&
0?
0g
0Y
0h
#1390000
1&
1?
1g
1Y
1h
0K!
1J!
1i
#1400000
0&
0?
0g
0Y
0h
#1410000
1&
1?
1g
1Y
1h
1K!
0i
0j
1k
0l
0m
1n
#1420000
0&
0?
0g
0Y
0h
#1430000
1&
1?
1g
1Y
1h
0K!
0J!
0I!
1H!
0n
1o
1l
1m
1i
0k
0l
1n
0o
1p
0p
#1440000
0&
0?
0g
0Y
0h
#1450000
1&
1?
1g
1Y
1h
1K!
0i
1j
#1460000
0&
0?
0g
0Y
0h
#1470000
1&
1?
1g
1Y
1h
0K!
1J!
1i
#1480000
0&
0?
0g
0Y
0h
#1490000
1&
1?
1g
1Y
1h
1K!
0i
0j
1k
1l
#1500000
0&
0?
0g
0Y
0h
#1510000
1&
1?
1g
1Y
1h
0K!
0J!
1I!
0l
0m
1i
0k
1l
1m
0n
1o
1p
1n
0o
0p
#1520000
0&
0?
0g
0Y
0h
#1530000
1&
1?
1g
1Y
1h
1K!
0i
1j
#1540000
0&
0?
0g
0Y
0h
#1550000
1&
1?
1g
1Y
1h
0K!
1J!
1i
#1560000
0&
0?
0g
0Y
0h
#1570000
1&
1?
1g
1Y
1h
1K!
0i
0j
1k
0l
0m
0n
1o
1p
#1580000
0&
0?
0g
0Y
0h
#1590000
1&
1?
1g
1Y
1h
0K!
0J!
0I!
0H!
1G!
0p
0q
1n
0o
1l
1m
1i
0k
0l
0n
1p
1q
1r
0r
#1600000
0&
0?
0g
0Y
0h
#1610000
1&
1?
1g
1Y
1h
1K!
0i
1j
#1620000
0&
0?
0g
0Y
0h
#1630000
1&
1?
1g
1Y
1h
0K!
1J!
1i
#1640000
0&
0?
0g
0Y
0h
#1650000
1&
1?
1g
1Y
1h
1K!
0i
0j
1k
1l
#1660000
0&
0?
0g
0Y
0h
#1670000
1&
1?
1g
1Y
1h
0K!
0J!
1I!
0l
0m
1i
0k
1l
1m
1n
0n
#1680000
0&
0?
0g
0Y
0h
#1690000
1&
1?
1g
1Y
1h
1K!
0i
1j
#1700000
0&
0?
0g
0Y
0h
#1710000
1&
1?
1g
1Y
1h
0K!
1J!
1i
#1720000
0&
0?
0g
0Y
0h
#1730000
1&
1?
1g
1Y
1h
1K!
0i
0j
1k
0l
0m
1n
#1740000
0&
0?
0g
0Y
0h
#1750000
1&
1?
1g
1Y
1h
0K!
0J!
0I!
1H!
0n
1o
1l
1m
1i
0k
0l
1n
0o
0p
0q
1r
1p
1q
0r
#1760000
0&
0?
0g
0Y
0h
#1770000
1&
1?
1g
1Y
1h
1K!
0i
1j
#1780000
0&
0?
0g
0Y
0h
#1790000
1&
1?
1g
1Y
1h
0K!
1J!
1i
#1800000
0&
0?
0g
0Y
0h
#1810000
1&
1?
1g
1Y
1h
1K!
0i
0j
1k
1l
#1820000
0&
0?
0g
0Y
0h
#1830000
1&
1?
1g
1Y
1h
0K!
0J!
1I!
0l
0m
1i
0k
1l
1m
0n
1o
0p
0q
1n
0o
1p
1q
1r
0r
#1840000
0&
0?
0g
0Y
0h
#1850000
1&
1?
1g
1Y
1h
1K!
0i
1j
#1860000
0&
0?
0g
0Y
0h
#1870000
1&
1?
1g
1Y
1h
0K!
1J!
1i
#1880000
0&
0?
0g
0Y
0h
#1890000
1&
1?
1g
1Y
1h
1K!
0i
0j
1k
0l
0m
0n
1o
0p
0q
1r
#1900000
0&
0?
0g
0Y
0h
#1910000
1&
1?
1g
1Y
1h
0K!
0J!
0I!
0H!
0G!
1F!
0r
1s
1p
1q
1n
0o
1l
1m
1i
0k
0l
0n
0p
1r
0s
0t
1t
#1920000
0&
0?
0g
0Y
0h
#1930000
1&
1?
1g
1Y
1h
1K!
0i
1j
#1940000
0&
0?
0g
0Y
0h
#1950000
1&
1?
1g
1Y
1h
0K!
1J!
1i
#1960000
0&
0?
0g
0Y
0h
#1970000
1&
1?
1g
1Y
1h
1K!
0i
0j
1k
1l
#1980000
0&
0?
0g
0Y
0h
#1990000
1&
1?
1g
1Y
1h
0K!
0J!
1I!
0l
0m
1i
0k
1l
1m
1n
0n
#2000000
0&
0?
0g
0Y
0h
#2010000
1&
1?
1g
1Y
1h
1K!
0i
1j
#2020000
0&
0?
0g
0Y
0h
#2030000
1&
1?
1g
1Y
1h
0K!
1J!
1i
#2040000
0&
0?
0g
0Y
0h
#2050000
1&
1?
1g
1Y
1h
1K!
0i
0j
1k
0l
0m
1n
#2060000
0&
0?
0g
0Y
0h
#2070000
1&
1?
1g
1Y
1h
0K!
0J!
0I!
1H!
0n
1o
1l
1m
1i
0k
0l
1n
0o
1p
0p
#2080000
0&
0?
0g
0Y
0h
#2090000
1&
1?
1g
1Y
1h
1K!
0i
1j
#2100000
0&
0?
0g
0Y
0h
#2110000
1&
1?
1g
1Y
1h
0K!
1J!
1i
#2120000
0&
0?
0g
0Y
0h
#2130000
1&
1?
1g
1Y
1h
1K!
0i
0j
1k
1l
#2140000
0&
0?
0g
0Y
0h
#2150000
1&
1?
1g
1Y
1h
0K!
0J!
1I!
0l
0m
1i
0k
1l
1m
0n
1o
1p
1n
0o
0p
#2160000
0&
0?
0g
0Y
0h
#2170000
1&
1?
1g
1Y
1h
1K!
0i
1j
#2180000
0&
0?
0g
0Y
0h
#2190000
1&
1?
1g
1Y
1h
0K!
1J!
1i
#2200000
0&
0?
0g
0Y
0h
#2210000
1&
1?
1g
1Y
1h
1K!
0i
0j
1k
0l
0m
0n
1o
1p
#2220000
0&
0?
0g
0Y
0h
#2230000
1&
1?
1g
1Y
1h
0K!
0J!
0I!
0H!
1G!
0p
0q
1n
0o
1l
1m
1i
0k
0l
0n
1p
1q
0r
1s
0t
1r
0s
1t
#2240000
0&
0?
0g
0Y
0h
#2250000
1&
1?
1g
1Y
1h
1K!
0i
1j
#2260000
0&
0?
0g
0Y
0h
#2270000
1&
1?
1g
1Y
1h
0K!
1J!
1i
#2280000
0&
0?
0g
0Y
0h
#2290000
1&
1?
1g
1Y
1h
1K!
0i
0j
1k
1l
#2300000
0&
0?
0g
0Y
0h
#2310000
1&
1?
1g
1Y
1h
0K!
0J!
1I!
0l
0m
1i
0k
1l
1m
1n
0n
#2320000
0&
0?
0g
0Y
0h
#2330000
1&
1?
1g
1Y
1h
1K!
0i
1j
#2340000
0&
0?
0g
0Y
0h
#2350000
1&
1?
1g
1Y
1h
0K!
1J!
1i
#2360000
0&
0?
0g
0Y
0h
#2370000
1&
1?
1g
1Y
1h
1K!
0i
0j
1k
0l
0m
1n
#2380000
0&
0?
0g
0Y
0h
#2390000
1&
1?
1g
1Y
1h
0K!
0J!
0I!
1H!
0n
1o
1l
1m
1i
0k
0l
1n
0o
0p
0q
0r
1s
1p
1q
1r
0s
0t
1t
#2400000
0&
0?
0g
0Y
0h
#2410000
1&
1?
1g
1Y
1h
1K!
0i
1j
#2420000
0&
0?
0g
0Y
0h
#2430000
1&
1?
1g
1Y
1h
0K!
1J!
1i
#2440000
0&
0?
0g
0Y
0h
#2450000
1&
1?
1g
1Y
1h
1K!
0i
0j
1k
1l
#2460000
0&
0?
0g
0Y
0h
#2470000
1&
1?
1g
1Y
1h
0K!
0J!
1I!
0l
0m
1i
0k
1l
1m
0n
1o
0p
0q
1n
0o
1p
1q
0r
1s
0t
1r
0s
1t
#2480000
0&
0?
0g
0Y
0h
#2490000
1&
1?
1g
1Y
1h
1K!
0i
1j
#2500000
0&
0?
0g
0Y
0h
#2510000
1&
1?
1g
1Y
1h
0K!
1J!
1i
#2520000
0&
0?
0g
0Y
0h
#2530000
1&
1?
1g
1Y
1h
1K!
0i
0j
1k
0l
0m
0n
1o
0p
0q
0r
1s
0t
#2540000
0&
0?
0g
0Y
0h
#2550000
1&
1?
1g
1Y
1h
0K!
0J!
0I!
0H!
0G!
0F!
0E!
0U
1t
1r
0s
1p
1q
1n
0o
1l
1m
1i
0k
0l
0n
0p
0r
0t
0u
0_
0H
0'
#2560000
0&
0?
0g
0Y
0h
#2570000
1&
1?
1g
1Y
1h
1K!
0i
1j
#2580000
0&
0?
0g
0Y
0h
#2590000
1&
1?
1g
1Y
1h
0K!
1J!
1i
#2600000
0&
0?
0g
0Y
0h
#2610000
1&
1?
1g
1Y
1h
1K!
0i
0j
1k
1l
#2620000
0&
0?
0g
0Y
0h
#2630000
1&
1?
1g
1Y
1h
0K!
0J!
1I!
0l
0m
1i
0k
1l
1m
1n
0n
#2640000
0&
0?
0g
0Y
0h
#2650000
1&
1?
1g
1Y
1h
1K!
0i
1j
#2660000
0&
0?
0g
0Y
0h
#2670000
1&
1?
1g
1Y
1h
0K!
1J!
1i
#2680000
0&
0?
0g
0Y
0h
#2690000
1&
1?
1g
1Y
1h
1K!
0i
0j
1k
0l
0m
1n
#2700000
0&
0?
0g
0Y
0h
#2710000
1&
1?
1g
1Y
1h
0K!
0J!
0I!
1H!
0n
1o
1l
1m
1i
0k
0l
1n
0o
1p
0p
#2720000
0&
0?
0g
0Y
0h
#2730000
1&
1?
1g
1Y
1h
1K!
0i
1j
#2740000
0&
0?
0g
0Y
0h
#2750000
1&
1?
1g
1Y
1h
0K!
1J!
1i
#2760000
0&
0?
0g
0Y
0h
#2770000
1&
1?
1g
1Y
1h
1K!
0i
0j
1k
1l
#2780000
0&
0?
0g
0Y
0h
#2790000
1&
1?
1g
1Y
1h
0K!
0J!
1I!
0l
0m
1i
0k
1l
1m
0n
1o
1p
1n
0o
0p
#2800000
0&
0?
0g
0Y
0h
#2810000
1&
1?
1g
1Y
1h
1K!
0i
1j
#2820000
0&
0?
0g
0Y
0h
#2830000
1&
1?
1g
1Y
1h
0K!
1J!
1i
#2840000
0&
0?
0g
0Y
0h
#2850000
1&
1?
1g
1Y
1h
1K!
0i
0j
1k
0l
0m
0n
1o
1p
#2860000
0&
0?
0g
0Y
0h
#2870000
1&
1?
1g
1Y
1h
0K!
0J!
0I!
0H!
1G!
0p
0q
1n
0o
1l
1m
1i
0k
0l
0n
1p
1q
1r
0r
#2880000
0&
0?
0g
0Y
0h
#2890000
1&
1?
1g
1Y
1h
1K!
0i
1j
#2900000
0&
0?
0g
0Y
0h
#2910000
1&
1?
1g
1Y
1h
0K!
1J!
1i
#2920000
0&
0?
0g
0Y
0h
#2930000
1&
1?
1g
1Y
1h
1K!
0i
0j
1k
1l
#2940000
0&
0?
0g
0Y
0h
#2950000
1&
1?
1g
1Y
1h
0K!
0J!
1I!
0l
0m
1i
0k
1l
1m
1n
0n
#2960000
0&
0?
0g
0Y
0h
#2970000
1&
1?
1g
1Y
1h
1K!
0i
1j
#2980000
0&
0?
0g
0Y
0h
#2990000
1&
1?
1g
1Y
1h
0K!
1J!
1i
#3000000
0&
0?
0g
0Y
0h
#3010000
1&
1?
1g
1Y
1h
1K!
0i
0j
1k
0l
0m
1n
#3020000
0&
0?
0g
0Y
0h
#3030000
1&
1?
1g
1Y
1h
0K!
0J!
0I!
1H!
0n
1o
1l
1m
1i
0k
0l
1n
0o
0p
0q
1r
1p
1q
0r
#3040000
0&
0?
0g
0Y
0h
#3050000
1&
1?
1g
1Y
1h
1K!
0i
1j
#3060000
0&
0?
0g
0Y
0h
#3070000
1&
1?
1g
1Y
1h
0K!
1J!
1i
#3080000
0&
0?
0g
0Y
0h
#3090000
1&
1?
1g
1Y
1h
1K!
0i
0j
1k
1l
#3100000
0&
0?
0g
0Y
0h
#3110000
1&
1?
1g
1Y
1h
0K!
0J!
1I!
0l
0m
1i
0k
1l
1m
0n
1o
0p
0q
1n
0o
1p
1q
1r
0r
#3120000
0&
0?
0g
0Y
0h
#3130000
1&
1?
1g
1Y
1h
1K!
0i
1j
#3140000
0&
0?
0g
0Y
0h
#3150000
1&
1?
1g
1Y
1h
0K!
1J!
1i
#3160000
0&
0?
0g
0Y
0h
#3170000
1&
1?
1g
1Y
1h
1K!
0i
0j
1k
0l
0m
0n
1o
0p
0q
1r
#3180000
0&
0?
0g
0Y
0h
#3190000
1&
1?
1g
1Y
1h
0K!
0J!
0I!
0H!
0G!
1F!
0r
1s
1p
1q
1n
0o
1l
1m
1i
0k
0l
0n
0p
1r
0s
1t
0t
#3200000
0&
0?
0g
0Y
0h
#3210000
1&
1?
1g
1Y
1h
1K!
0i
1j
#3220000
0&
0?
0g
0Y
0h
#3230000
1&
1?
1g
1Y
1h
0K!
1J!
1i
#3240000
0&
0?
0g
0Y
0h
#3250000
1&
1?
1g
1Y
1h
1K!
0i
0j
1k
1l
#3260000
0&
0?
0g
0Y
0h
#3270000
1&
1?
1g
1Y
1h
0K!
0J!
1I!
0l
0m
1i
0k
1l
1m
1n
0n
#3280000
0&
0?
0g
0Y
0h
#3290000
1&
1?
1g
1Y
1h
1K!
0i
1j
#3300000
0&
0?
0g
0Y
0h
#3310000
1&
1?
1g
1Y
1h
0K!
1J!
1i
#3320000
0&
0?
0g
0Y
0h
#3330000
1&
1?
1g
1Y
1h
1K!
0i
0j
1k
0l
0m
1n
#3340000
0&
0?
0g
0Y
0h
#3350000
1&
1?
1g
1Y
1h
0K!
0J!
0I!
1H!
0n
1o
1l
1m
1i
0k
0l
1n
0o
1p
0p
#3360000
0&
0?
0g
0Y
0h
#3370000
1&
1?
1g
1Y
1h
1K!
0i
1j
