Digitalteknik - Quartus Laboration/uppgift5/simulation/qsim/uppgift5.msim.vcd
$comment
	File created using the following command:
		vcd file uppgift5.msim.vcd -direction
$end
$date
	Tue Mar 08 13:10:05 2022
$end
$version
	ModelSim Version 10.5b
$end
$timescale
	1ps
$end

$scope module uppgift5_vhd_vec_tst $end
$var wire 1 ! A_out $end
$var wire 1 " CLK50M $end
$var wire 1 # clk_163 $end
$var wire 1 $ jk0 $end
$var wire 1 % jk1 $end
$var wire 1 & Klar $end
$var wire 1 ' Ladda $end
$var wire 1 ( Rakna $end
$var wire 1 ) Start $end
$var wire 1 * SW_CLK $end

$scope module i1 $end
$var wire 1 + gnd $end
$var wire 1 , vcc $end
$var wire 1 - unknown $end
$var wire 1 . devoe $end
$var wire 1 / devclrn $end
$var wire 1 0 devpor $end
$var wire 1 1 ww_devoe $end
$var wire 1 2 ww_devclrn $end
$var wire 1 3 ww_devpor $end
$var wire 1 4 ww_Ladda $end
$var wire 1 5 ww_CLK50M $end
$var wire 1 6 ww_Klar $end
$var wire 1 7 ww_Start $end
$var wire 1 8 ww_Rakna $end
$var wire 1 9 ww_A_out $end
$var wire 1 : ww_clk_163 $end
$var wire 1 ; ww_jk1 $end
$var wire 1 < ww_jk0 $end
$var wire 1 = ww_SW_CLK $end
$var wire 1 > \inst|clk_divider[6]~clkctrl_INCLK_bus\ [3] $end
$var wire 1 ? \inst|clk_divider[6]~clkctrl_INCLK_bus\ [2] $end
$var wire 1 @ \inst|clk_divider[6]~clkctrl_INCLK_bus\ [1] $end
$var wire 1 A \inst|clk_divider[6]~clkctrl_INCLK_bus\ [0] $end
$var wire 1 B \CLK50M~inputclkctrl_INCLK_bus\ [3] $end
$var wire 1 C \CLK50M~inputclkctrl_INCLK_bus\ [2] $end
$var wire 1 D \CLK50M~inputclkctrl_INCLK_bus\ [1] $end
$var wire 1 E \CLK50M~inputclkctrl_INCLK_bus\ [0] $end
$var wire 1 F \SW_CLK~input_o\ $end
$var wire 1 G \Ladda~output_o\ $end
$var wire 1 H \Rakna~output_o\ $end
$var wire 1 I \A_out~output_o\ $end
$var wire 1 J \clk_163~output_o\ $end
$var wire 1 K \jk1~output_o\ $end
$var wire 1 L \jk0~output_o\ $end
$var wire 1 M \CLK50M~input_o\ $end
$var wire 1 N \CLK50M~inputclkctrl_outclk\ $end
$var wire 1 O \inst|clk_divider[0]~18_combout\ $end
$var wire 1 P \inst|clk_divider[1]~6_combout\ $end
$var wire 1 Q \inst|clk_divider[1]~7\ $end
$var wire 1 R \inst|clk_divider[2]~8_combout\ $end
$var wire 1 S \inst|clk_divider[2]~9\ $end
$var wire 1 T \inst|clk_divider[3]~10_combout\ $end
$var wire 1 U \inst|clk_divider[3]~11\ $end
$var wire 1 V \inst|clk_divider[4]~12_combout\ $end
$var wire 1 W \inst|clk_divider[4]~13\ $end
$var wire 1 X \inst|clk_divider[5]~14_combout\ $end
$var wire 1 Y \inst|clk_divider[5]~15\ $end
$var wire 1 Z \inst|clk_divider[6]~16_combout\ $end
$var wire 1 [ \inst|clk_divider[6]~clkctrl_outclk\ $end
$var wire 1 \ \Start~input_o\ $end
$var wire 1 ] \Klar~input_o\ $end
$var wire 1 ^ \inst2|iq~0_combout\ $end
$var wire 1 _ \inst2|iq~q\ $end
$var wire 1 ` \inst3|iq~0_combout\ $end
$var wire 1 a \inst3|iq~q\ $end
$var wire 1 b \inst11~combout\ $end
$var wire 1 c \inst24~combout\ $end
$var wire 1 d \inst|clk_divider\ [26] $end
$var wire 1 e \inst|clk_divider\ [25] $end
$var wire 1 f \inst|clk_divider\ [24] $end
$var wire 1 g \inst|clk_divider\ [23] $end
$var wire 1 h \inst|clk_divider\ [22] $end
$var wire 1 i \inst|clk_divider\ [21] $end
$var wire 1 j \inst|clk_divider\ [20] $end
$var wire 1 k \inst|clk_divider\ [19] $end
$var wire 1 l \inst|clk_divider\ [18] $end
$var wire 1 m \inst|clk_divider\ [17] $end
$var wire 1 n \inst|clk_divider\ [16] $end
$var wire 1 o \inst|clk_divider\ [15] $end
$var wire 1 p \inst|clk_divider\ [14] $end
$var wire 1 q \inst|clk_divider\ [13] $end
$var wire 1 r \inst|clk_divider\ [12] $end
$var wire 1 s \inst|clk_divider\ [11] $end
$var wire 1 t \inst|clk_divider\ [10] $end
$var wire 1 u \inst|clk_divider\ [9] $end
$var wire 1 v \inst|clk_divider\ [8] $end
$var wire 1 w \inst|clk_divider\ [7] $end
$var wire 1 x \inst|clk_divider\ [6] $end
$var wire 1 y \inst|clk_divider\ [5] $end
$var wire 1 z \inst|clk_divider\ [4] $end
$var wire 1 { \inst|clk_divider\ [3] $end
$var wire 1 | \inst|clk_divider\ [2] $end
$var wire 1 } \inst|clk_divider\ [1] $end
$var wire 1 ~ \inst|clk_divider\ [0] $end
$var wire 1 !! \ALT_INV_inst11~combout\ $end
$var wire 1 "! \ALT_INV_inst24~combout\ $end
$upscope $end
$upscope $end
$enddefinitions $end
#0
$dumpvars
1!
0"
0#
0$
0%
0&
1'
0(
0)
0*
0+
1,
x-
1.
1/
10
11
12
13
14
05
06
07
08
19
0:
0;
0<
0=
0F
1G
0H
1I
0J
0K
0L
0M
0N
1O
0P
0Q
0R
1S
0T
0U
0V
1W
0X
0Y
0Z
0[
0\
0]
0^
0_
0`
0a
0b
0c
1!!
1"!
xd
xe
xf
xg
xh
xi
xj
xk
xl
xm
xn
xo
xp
xq
xr
xs
xt
xu
xv
xw
0x
0y
0z
0{
0|
0}
0~
1B
1C
1D
0E
1>
1?
1@
0A
$end
#10000
1"
15
1M
1E
1N
1~
0O
1P
#20000
0"
05
0M
0E
0N
#30000
1"
15
1M
1E
1N
0~
1}
1O
#40000
0"
05
0M
0E
0N
#50000
1"
15
1M
1E
1N
1~
0O
0P
1Q
1R
#60000
0"
05
0M
0E
0N
#70000
1"
15
1M
1E
1N
0~
0}
1|
0R
0S
1O
0Q
1R
1S
1T
0T
#80000
0"
05
0M
0E
0N
#90000
1"
15
1M
1E
1N
1~
0O
1P
#100000
0"
05
0M
0E
0N
#110000
1"
15
1M
1E
1N
0~
1}
1O
#120000
0"
05
0M
0E
0N
#130000
1"
15
1M
1E
1N
1~
0O
0P
1Q
0R
0S
1T
#140000
0"
05
0M
0E
0N
#150000
1"
15
1M
1E
1N
0~
0}
0|
1{
0T
1U
1R
1S
1O
0Q
0R
1T
0U
1V
0V
#160000
0"
05
0M
0E
0N
#170000
1"
15
1M
1E
1N
1~
0O
1P
#180000
0"
05
0M
0E
0N
#190000
1"
15
1M
1E
1N
0~
1}
1O
#200000
0"
05
0M
0E
0N
#210000
1"
15
1M
1E
1N
1~
0O
0P
1Q
1R
#220000
0"
05
0M
0E
0N
#230000
1"
15
1M
1E
1N
0~
0}
1|
0R
0S
1O
0Q
1R
1S
0T
1U
1V
1T
0U
0V
#240000
0"
05
0M
0E
0N
#250000
1"
15
1M
1E
1N
1~
0O
1P
#260000
0"
05
0M
0E
0N
#270000
1"
15
1M
1E
1N
0~
1}
1O
#280000
0"
05
0M
0E
0N
#290000
1"
15
1M
1E
1N
1~
0O
0P
1Q
0R
0S
0T
1U
1V
#300000
0"
05
0M
0E
0N
#310000
1"
15
1M
1E
1N
0~
0}
0|
0{
1z
0V
0W
1T
0U
1R
1S
1O
0Q
0R
0T
1V
1W
1X
0X
#320000
0"
05
0M
0E
0N
#330000
1"
15
1M
1E
1N
1~
0O
1P
#340000
0"
05
0M
0E
0N
#350000
1"
15
1M
1E
1N
0~
1}
1O
#360000
0"
05
0M
0E
0N
#370000
1"
15
1M
1E
1N
1~
0O
0P
1Q
1R
#380000
0"
05
0M
0E
0N
#390000
1"
15
1M
1E
1N
0~
0}
1|
0R
0S
1O
0Q
1R
1S
1T
0T
#400000
0"
05
0M
0E
0N
#410000
1"
15
1M
1E
1N
1~
0O
1P
#420000
0"
05
0M
0E
0N
#430000
1"
15
1M
1E
1N
0~
1}
1O
#440000
0"
05
0M
0E
0N
#450000
1"
15
1M
1E
1N
1~
0O
0P
1Q
0R
0S
1T
#460000
0"
05
0M
0E
0N
#470000
1"
15
1M
1E
1N
0~
0}
0|
1{
0T
1U
1R
1S
1O
0Q
0R
1T
0U
0V
0W
1X
1V
1W
0X
#480000
0"
05
0M
0E
0N
#490000
1"
15
1M
1E
1N
1~
0O
1P
#500000
0"
05
0M
0E
0N
#510000
1"
15
1M
1E
1N
0~
1}
1O
#520000
0"
05
0M
0E
0N
#530000
1"
15
1M
1E
1N
1~
0O
0P
1Q
1R
#540000
0"
05
0M
0E
0N
#550000
1"
15
1M
1E
1N
0~
0}
1|
0R
0S
1O
0Q
1R
1S
0T
1U
0V
0W
1T
0U
1V
1W
1X
0X
#560000
0"
05
0M
0E
0N
#570000
1"
15
1M
1E
1N
1~
0O
1P
#580000
0"
05
0M
0E
0N
#590000
1"
15
1M
1E
1N
0~
1}
1O
#600000
0"
05
0M
0E
0N
#610000
1"
15
1M
1E
1N
1~
0O
0P
1Q
0R
0S
0T
1U
0V
0W
1X
#620000
0"
05
0M
0E
0N
#630000
1"
15
1M
1E
1N
0~
0}
0|
0{
0z
1y
0X
1Y
1V
1W
1T
0U
1R
1S
1O
0Q
0R
0T
0V
1X
0Y
1Z
0Z
#640000
0"
05
0M
0E
0N
#650000
1"
15
1M
1E
1N
1~
0O
1P
#660000
0"
05
0M
0E
0N
#670000
1"
15
1M
1E
1N
0~
1}
1O
#680000
0"
05
0M
0E
0N
#690000
1"
15
1M
1E
1N
1~
0O
0P
1Q
1R
#700000
0"
05
0M
0E
0N
#710000
1"
15
1M
1E
1N
0~
0}
1|
0R
0S
1O
0Q
1R
1S
1T
0T
#720000
0"
05
0M
0E
0N
#730000
1"
15
1M
1E
1N
1~
0O
1P
#740000
0"
05
0M
0E
0N
#750000
1"
15
1M
1E
1N
0~
1}
1O
#760000
0"
05
0M
0E
0N
#770000
1"
15
1M
1E
1N
1~
0O
0P
1Q
0R
0S
1T
#780000
0"
05
0M
0E
0N
#790000
1"
15
1M
1E
1N
0~
0}
0|
1{
0T
1U
1R
1S
1O
0Q
0R
1T
0U
1V
0V
#800000
0"
05
0M
0E
0N
#810000
1"
15
1M
1E
1N
1~
0O
1P
#820000
0"
05
0M
0E
0N
#830000
1"
15
1M
1E
1N
0~
1}
1O
#840000
0"
05
0M
0E
0N
#850000
1"
15
1M
1E
1N
1~
0O
0P
1Q
1R
#860000
0"
05
0M
0E
0N
#870000
1"
15
1M
1E
1N
0~
0}
1|
0R
0S
1O
0Q
1R
1S
0T
1U
1V
1T
0U
0V
#880000
0"
05
0M
0E
0N
#890000
1"
15
1M
1E
1N
1~
0O
1P
#900000
0"
05
0M
0E
0N
#910000
1"
15
1M
1E
1N
0~
1}
1O
#920000
0"
05
0M
0E
0N
#930000
1"
15
1M
1E
1N
1~
0O
0P
1Q
0R
0S
0T
1U
1V
#940000
0"
05
0M
0E
0N
#950000
1"
15
1M
1E
1N
0~
0}
0|
0{
1z
0V
0W
1T
0U
1R
1S
1O
0Q
0R
0T
1V
1W
0X
1Y
1Z
1X
0Y
0Z
#960000
0"
05
0M
0E
0N
#970000
1"
15
1M
1E
1N
1~
0O
1P
#980000
0"
05
0M
0E
0N
#990000
1"
15
1M
1E
1N
0~
1}
1O
#1000000
0"
05
0M
0E
0N
#1010000
1"
15
1M
1E
1N
1~
0O
0P
1Q
1R
#1020000
0"
05
0M
0E
0N
#1030000
1"
15
1M
1E
1N
0~
0}
1|
0R
0S
1O
0Q
1R
1S
1T
0T
#1040000
0"
05
0M
0E
0N
#1050000
1"
15
1M
1E
1N
1~
0O
1P
#1060000
0"
05
0M
0E
0N
#1070000
1"
15
1M
1E
1N
0~
1}
1O
#1080000
0"
05
0M
0E
0N
#1090000
1"
15
1M
1E
1N
1~
0O
0P
1Q
0R
0S
1T
#1100000
0"
05
0M
0E
0N
#1110000
1"
15
1M
1E
1N
0~
0}
0|
1{
0T
1U
1R
1S
1O
0Q
0R
1T
0U
0V
0W
0X
1Y
1V
1W
1X
0Y
1Z
0Z
#1120000
0"
05
0M
0E
0N
#1130000
1"
15
1M
1E
1N
1~
0O
1P
#1140000
0"
05
0M
0E
0N
#1150000
1"
15
1M
1E
1N
0~
1}
1O
#1160000
0"
05
0M
0E
0N
#1170000
1"
15
1M
1E
1N
1~
0O
0P
1Q
1R
#1180000
0"
05
0M
0E
0N
#1190000
1"
15
1M
1E
1N
0~
0}
1|
0R
0S
1O
0Q
1R
1S
0T
1U
0V
0W
1T
0U
1V
1W
0X
1Y
1Z
1X
0Y
0Z
#1200000
0"
05
0M
0E
0N
#1210000
1"
15
1M
1E
1N
1~
0O
1P
#1220000
0"
05
0M
0E
0N
#1230000
1"
15
1M
1E
1N
0~
1}
1O
#1240000
0"
05
0M
0E
0N
#1250000
1"
15
1M
1E
1N
1~
0O
0P
1Q
0R
0S
0T
1U
0V
0W
0X
1Y
1Z
#1260000
0"
05
0M
0E
0N
#1270000
1"
15
1M
1E
1N
0~
0}
0|
0{
0z
0y
1x
1A
0Z
1X
0Y
1V
1W
1T
0U
1R
1S
1O
0Q
0R
0T
0V
0X
1Z
1[
1J
1:
1#
#1280000
0"
05
0M
0E
0N
#1290000
1"
15
1M
1E
1N
1~
0O
1P
#1300000
0"
05
0M
0E
0N
#1310000
1"
15
1M
1E
1N
0~
1}
1O
#1320000
0"
05
0M
0E
0N
#1330000
1"
15
1M
1E
1N
1~
0O
0P
1Q
1R
#1340000
0"
05
0M
0E
0N
#1350000
1"
15
1M
1E
1N
0~
0}
1|
0R
0S
1O
0Q
1R
1S
1T
0T
#1360000
0"
05
0M
0E
0N
#1370000
1"
15
1M
1E
1N
1~
0O
1P
#1380000
0"
05
0M
0E
0N
#1390000
1"
15
1M
1E
1N
0~
1}
1O
#1400000
0"
05
0M
0E
0N
#1410000
1"
15
1M
1E
1N
1~
0O
0P
1Q
0R
0S
1T
#1420000
0"
05
0M
0E
0N
#1430000
1"
15
1M
1E
1N
0~
0}
0|
1{
0T
1U
1R
1S
1O
0Q
0R
1T
0U
1V
0V
#1440000
0"
05
0M
0E
0N
#1450000
1"
15
1M
1E
1N
1~
0O
1P
#1460000
0"
05
0M
0E
0N
#1470000
1"
15
1M
1E
1N
0~
1}
1O
#1480000
0"
05
0M
0E
0N
#1490000
1"
15
1M
1E
1N
1~
0O
0P
1Q
1R
#1500000
0"
05
0M
0E
0N
#1510000
1"
15
1M
1E
1N
0~
0}
1|
0R
0S
1O
0Q
1R
1S
0T
1U
1V
1T
0U
0V
#1520000
0"
05
0M
0E
0N
#1530000
1"
15
1M
1E
1N
1~
0O
1P
#1540000
0"
05
0M
0E
0N
#1550000
1"
15
1M
1E
1N
0~
1}
1O
#1560000
0"
05
0M
0E
0N
#1570000
1"
15
1M
1E
1N
1~
0O
0P
1Q
0R
0S
0T
1U
1V
#1580000
0"
05
0M
0E
0N
#1590000
1"
15
1M
1E
1N
0~
0}
0|
0{
1z
0V
0W
1T
0U
1R
1S
1O
0Q
0R
0T
1V
1W
1X
0X
#1600000
0"
05
0M
0E
0N
#1610000
1"
15
1M
1E
1N
1~
0O
1P
#1620000
0"
05
0M
0E
0N
#1630000
1"
15
1M
1E
1N
0~
1}
1O
#1640000
0"
05
0M
0E
0N
#1650000
1"
15
1M
1E
1N
1~
0O
0P
1Q
1R
#1660000
0"
05
0M
0E
0N
#1670000
1"
15
1M
1E
1N
0~
0}
1|
0R
0S
1O
0Q
1R
1S
1T
0T
#1680000
0"
05
0M
0E
0N
#1690000
1"
15
1M
1E
1N
1~
0O
1P
#1700000
0"
05
0M
0E
0N
#1710000
1"
15
1M
1E
1N
0~
1}
1O
#1720000
0"
05
0M
0E
0N
#1730000
1"
15
1M
1E
1N
1~
0O
0P
1Q
0R
0S
1T
#1740000
0"
05
0M
0E
0N
#1750000
1"
15
1M
1E
1N
0~
0}
0|
1{
0T
1U
1R
1S
1O
0Q
0R
1T
0U
0V
0W
1X
1V
1W
0X
#1760000
0"
05
0M
0E
0N
#1770000
1"
15
1M
1E
1N
1~
0O
1P
#1780000
0"
05
0M
0E
0N
#1790000
1"
15
1M
1E
1N
0~
1}
1O
#1800000
0"
05
0M
0E
0N
#1810000
1"
15
1M
1E
1N
1~
0O
0P
1Q
1R
#1820000
0"
05
0M
0E
0N
#1830000
1"
15
1M
1E
1N
0~
0}
1|
0R
0S
1O
0Q
1R
1S
0T
1U
0V
0W
1T
0U
1V
1W
1X
0X
#1840000
0"
05
0M
0E
0N
#1850000
1"
15
1M
1E
1N
1~
0O
1P
#1860000
0"
05
0M
0E
0N
#1870000
1"
15
1M
1E
1N
0~
1}
1O
#1880000
0"
05
0M
0E
0N
#1890000
1"
15
1M
1E
1N
1~
0O
0P
1Q
0R
0S
0T
1U
0V
0W
1X
#1900000
0"
05
0M
0E
0N
#1910000
1"
15
1M
1E
1N
0~
0}
0|
0{
0z
1y
0X
1Y
1V
1W
1T
0U
1R
1S
1O
0Q
0R
0T
0V
1X
0Y
0Z
1Z
#1920000
0"
05
0M
0E
0N
#1930000
1"
15
1M
1E
1N
1~
0O
1P
#1940000
0"
05
0M
0E
0N
#1950000
1"
15
1M
1E
1N
0~
1}
1O
#1960000
0"
05
0M
0E
0N
#1970000
1"
15
1M
1E
1N
1~
0O
0P
1Q
1R
#1980000
0"
05
0M
0E
0N
#1990000
1"
15
1M
1E
1N
0~
0}
1|
0R
0S
1O
0Q
1R
1S
1T
0T
#2000000
0"
05
0M
0E
0N
#2010000
1"
15
1M
1E
1N
1~
0O
1P
#2020000
0"
05
0M
0E
0N
#2030000
1"
15
1M
1E
1N
0~
1}
1O
#2040000
0"
05
0M
0E
0N
#2050000
1"
15
1M
1E
1N
1~
0O
0P
1Q
0R
0S
1T
#2060000
0"
05
0M
0E
0N
#2070000
1"
15
1M
1E
1N
0~
0}
0|
1{
0T
1U
1R
1S
1O
0Q
0R
1T
0U
1V
0V
#2080000
0"
05
0M
0E
0N
#2090000
1"
15
1M
1E
1N
1~
0O
1P
#2100000
0"
05
0M
0E
0N
#2110000
1"
15
1M
1E
1N
0~
1}
1O
#2120000
0"
05
0M
0E
0N
#2130000
1"
15
1M
1E
1N
1~
0O
0P
1Q
1R
#2140000
0"
05
0M
0E
0N
#2150000
1"
15
1M
1E
1N
0~
0}
1|
0R
0S
1O
0Q
1R
1S
0T
1U
1V
1T
0U
0V
#2160000
0"
05
0M
0E
0N
#2170000
1"
15
1M
1E
1N
1~
0O
1P
#2180000
0"
05
0M
0E
0N
#2190000
1"
15
1M
1E
1N
0~
1}
1O
#2200000
0"
05
0M
0E
0N
#2210000
1"
15
1M
1E
1N
1~
0O
0P
1Q
0R
0S
0T
1U
1V
#2220000
0"
05
0M
0E
0N
#2230000
1"
15
1M
1E
1N
0~
0}
0|
0{
1z
0V
0W
1T
0U
1R
1S
1O
0Q
0R
0T
1V
1W
0X
1Y
0Z
1X
0Y
1Z
#2240000
0"
05
0M
0E
0N
#2250000
1"
15
1M
1E
1N
1~
0O
1P
#2260000
0"
05
0M
0E
0N
#2270000
1"
15
1M
1E
1N
0~
1}
1O
#2280000
0"
05
0M
0E
0N
#2290000
1"
15
1M
1E
1N
1~
0O
0P
1Q
1R
#2300000
0"
05
0M
0E
0N
#2310000
1"
15
1M
1E
1N
0~
0}
1|
0R
0S
1O
0Q
1R
1S
1T
0T
#2320000
0"
05
0M
0E
0N
#2330000
1"
15
1M
1E
1N
1~
0O
1P
#2340000
0"
05
0M
0E
0N
#2350000
1"
15
1M
1E
1N
0~
1}
1O
#2360000
0"
05
0M
0E
0N
#2370000
1"
15
1M
1E
1N
1~
0O
0P
1Q
0R
0S
1T
#2380000
0"
05
0M
0E
0N
#2390000
1"
15
1M
1E
1N
0~
0}
0|
1{
0T
1U
1R
1S
1O
0Q
0R
1T
0U
0V
0W
0X
1Y
1V
1W
1X
0Y
0Z
1Z
#2400000
0"
05
0M
0E
0N
#2410000
1"
15
1M
1E
1N
1~
0O
1P
#2420000
0"
05
0M
0E
0N
#2430000
1"
15
1M
1E
1N
0~
1}
1O
#2440000
0"
05
0M
0E
0N
#2450000
1"
15
1M
1E
1N
1~
0O
0P
1Q
1R
#2460000
0"
05
0M
0E
0N
#2470000
1"
15
1M
1E
1N
0~
0}
1|
0R
0S
1O
0Q
1R
1S
0T
1U
0V
0W
1T
0U
1V
1W
0X
1Y
0Z
1X
0Y
1Z
#2480000
0"
05
0M
0E
0N
#2490000
1"
15
1M
1E
1N
1~
0O
1P
#2500000
0"
05
0M
0E
0N
#2510000
1"
15
1M
1E
1N
0~
1}
1O
#2520000
0"
05
0M
0E
0N
#2530000
1"
15
1M
1E
1N
1~
0O
0P
1Q
0R
0S
0T
1U
0V
0W
0X
1Y
0Z
#2540000
0"
05
0M
0E
0N
#2550000
1"
15
1M
1E
1N
0~
0}
0|
0{
0z
0y
0x
0A
1Z
1X
0Y
1V
1W
1T
0U
1R
1S
1O
0Q
0R
0T
0V
0X
0Z
0[
0J
0:
0#
#2560000
0"
05
0M
0E
0N
#2570000
1"
15
1M
1E
1N
1~
0O
1P
#2580000
0"
05
0M
0E
0N
#2590000
1"
15
1M
1E
1N
0~
1}
1O
#2600000
0"
05
0M
0E
0N
#2610000
1"
15
1M
1E
1N
1~
0O
0P
1Q
1R
#2620000
0"
05
0M
0E
0N
#2630000
1"
15
1M
1E
1N
0~
0}
1|
0R
0S
1O
0Q
1R
1S
1T
0T
#2640000
0"
05
0M
0E
0N
#2650000
1"
15
1M
1E
1N
1~
0O
1P
#2660000
0"
05
0M
0E
0N
#2670000
1"
15
1M
1E
1N
0~
1}
1O
#2680000
0"
05
0M
0E
0N
#2690000
1"
15
1M
1E
1N
1~
0O
0P
1Q
0R
0S
1T
#2700000
0"
05
0M
0E
0N
#2710000
1"
15
1M
1E
1N
0~
0}
0|
1{
0T
1U
1R
1S
1O
0Q
0R
1T
0U
1V
0V
#2720000
0"
05
0M
0E
0N
#2730000
1"
15
1M
1E
1N
1~
0O
1P
#2740000
0"
05
0M
0E
0N
#2750000
1"
15
1M
1E
1N
0~
1}
1O
#2760000
0"
05
0M
0E
0N
#2770000
1"
15
1M
1E
1N
1~
0O
0P
1Q
1R
#2780000
0"
05
0M
0E
0N
#2790000
1"
15
1M
1E
1N
0~
0}
1|
0R
0S
1O
0Q
1R
1S
0T
1U
1V
1T
0U
0V
#2800000
0"
05
0M
0E
0N
#2810000
1"
15
1M
1E
1N
1~
0O
1P
#2820000
0"
05
0M
0E
0N
#2830000
1"
15
1M
1E
1N
0~
1}
1O
#2840000
0"
05
0M
0E
0N
#2850000
1"
15
1M
1E
1N
1~
0O
0P
1Q
0R
0S
0T
1U
1V
#2860000
0"
05
0M
0E
0N
#2870000
1"
15
1M
1E
1N
0~
0}
0|
0{
1z
0V
0W
1T
0U
1R
1S
1O
0Q
0R
0T
1V
1W
1X
0X
#2880000
0"
05
0M
0E
0N
#2890000
1"
15
1M
1E
1N
1~
0O
1P
#2900000
0"
05
0M
0E
0N
#2910000
1"
15
1M
1E
1N
0~
1}
1O
#2920000
0"
05
0M
0E
0N
#2930000
1"
15
1M
1E
1N
1~
0O
0P
1Q
1R
#2940000
0"
05
0M
0E
0N
#2950000
1"
15
1M
1E
1N
0~
0}
1|
0R
0S
1O
0Q
1R
1S
1T
0T
#2960000
0"
05
0M
0E
0N
#2970000
1"
15
1M
1E
1N
1~
0O
1P
#2980000
0"
05
0M
0E
0N
#2990000
1"
15
1M
1E
1N
0~
1}
1O
#3000000
0"
05
0M
0E
0N
#3010000
1"
15
1M
1E
1N
1~
0O
0P
1Q
0R
0S
1T
#3020000
0"
05
0M
0E
0N
#3030000
1"
15
1M
1E
1N
0~
0}
0|
1{
0T
1U
1R
1S
1O
0Q
0R
1T
0U
0V
0W
1X
1V
1W
0X
#3040000
0"
05
0M
0E
0N
#3050000
1"
15
1M
1E
1N
1~
0O
1P
#3060000
0"
05
0M
0E
0N
#3070000
1"
15
1M
1E
1N
0~
1}
1O
#3080000
0"
05
0M
0E
0N
#3090000
1"
15
1M
1E
1N
1~
0O
0P
1Q
1R
#3100000
0"
05
0M
0E
0N
#3110000
1"
15
1M
1E
1N
0~
0}
1|
0R
0S
1O
0Q
1R
1S
0T
1U
0V
0W
1T
0U
1V
1W
1X
0X
#3120000
0"
05
0M
0E
0N
#3130000
1"
15
1M
1E
1N
1~
0O
1P
#3140000
0"
05
0M
0E
0N
#3150000
1"
15
1M
1E
1N
0~
1}
1O
#3160000
0"
05
0M
0E
0N
#3170000
1"
15
1M
1E
1N
1~
0O
0P
1Q
0R
0S
0T
1U
0V
0W
1X
#3180000
0"
05
0M
0E
0N
#3190000
1"
15
1M
1E
1N
0~
0}
0|
0{
0z
1y
0X
1Y
1V
1W
1T
0U
1R
1S
1O
0Q
0R
0T
0V
1X
0Y
1Z
0Z
#3200000
0"
05
0M
0E
0N
#3210000
1"
15
1M
1E
1N
1~
0O
1P
#3220000
0"
05
0M
0E
0N
#3230000
1"
15
1M
1E
1N
0~
1}
1O
#3240000
0"
05
0M
0E
0N
#3250000
1"
15
1M
1E
1N
1~
0O
0P
1Q
1R
#3260000
0"
05
0M
0E
0N
#3270000
1"
15
1M
1E
1N
0~
0}
1|
0R
0S
1O
0Q
1R
1S
1T
0T
#3280000
0"
05
0M
0E
0N
#3290000
1"
15
1M
1E
1N
1~
0O
1P
#3300000
0"
05
0M
0E
0N
#3310000
1"
15
1M
1E
1N
0~
1}
1O
#3320000
0"
05
0M
0E
0N
#3330000
1"
15
1M
1E
1N
1~
0O
0P
1Q
0R
0S
1T
#3340000
0"
05
0M
0E
0N
#3350000
1"
15
1M
1E
1N
0~
0}
0|
1{
0T
1U
1R
1S
1O
0Q
0R
1T
0U
1V
0V
#3360000
0"
05
0M
0E
0N
#3370000
1"
15
1M
1E
1N
1~
0O
1P
#3380000
0"
05
0M
0E
0N
#3390000
1"
15
1M
1E
1N
0~
1}
1O
#3400000
0"
05
0M
0E
0N
#3410000
1"
15
1M
1E
1N
1~
0O
0P
1Q
1R
#3420000
0"
05
0M
0E
0N
#3430000
1"
15
1M
1E
1N
0~
0}
1|
0R
0S
1O
0Q
1R
1S
0T
1U
1V
1T
0U
0V
#3440000
0"
05
0M
0E
0N
#3450000
1"
15
1M
1E
1N
1~
0O
1P
#3460000
0"
05
0M
0E
0N
#3470000
1"
15
1M
1E
1N
0~
1}
1O
#3480000
0"
05
0M
0E
0N
#3490000
1"
15
1M
1E
1N
1~
0O
0P
1Q
0R
0S
0T
1U
1V
#3500000
0"
05
0M
0E
0N
#3510000
1"
15
1M
1E
1N
0~
0}
0|
0{
1z
0V
0W
1T
0U
1R
1S
1O
0Q
0R
0T
1V
1W
0X
1Y
1Z
1X
0Y
0Z
#3520000
0"
05
0M
0E
0N
#3530000
1"
15
1M
1E
1N
1~
0O
1P
#3540000
0"
05
0M
0E
0N
#3550000
1"
15
1M
1E
1N
0~
1}
1O
#3560000
0"
05
0M
0E
0N
#3570000
1"
15
1M
1E
1N
1~
0O
0P
1Q
1R
#3580000
0"
05
0M
0E
0N
#3590000
1"
15
1M
1E
1N
0~
0}
1|
0R
0S
1O
0Q
1R
1S
1T
0T
#3600000
0"
05
0M
0E
0N
#3610000
1"
15
1M
1E
1N
1~
0O
1P
#3620000
0"
05
0M
0E
0N
#3630000
1"
15
1M
1E
1N
0~
1}
1O
#3640000
0"
05
0M
0E
0N
#3650000
1"
15
1M
1E
1N
1~
0O
0P
1Q
0R
0S
1T
#3660000
0"
05
0M
0E
0N
#3670000
1"
15
1M
1E
1N
0~
0}
0|
1{
0T
1U
1R
1S
1O
0Q
0R
1T
0U
0V
0W
0X
1Y
1V
1W
1X
0Y
1Z
0Z
#3680000
0"
05
0M
0E
0N
#3690000
1"
15
1M
1E
1N
1~
0O
1P
#3700000
0"
05
0M
0E
0N
#3710000
1"
15
1M
1E
1N
0~
1}
1O
#3720000
0"
05
0M
0E
0N
#3730000
1"
15
1M
1E
1N
1~
0O
0P
1Q
1R
#3740000
0"
05
0M
0E
0N
#3750000
1"
15
1M
1E
1N
0~
0}
1|
0R
0S
1O
0Q
1R
1S
0T
1U
0V
0W
1T
0U
1V
1W
0X
1Y
1Z
1X
0Y
0Z
#3760000
0"
05
0M
0E
0N
#3770000
1"
15
1M
1E
1N
1~
0O
1P
#3780000
0"
05
0M
0E
0N
#3790000
1"
15
1M
1E
1N
0~
1}
1O
#3800000
0"
05
0M
0E
0N
#3810000
1"
15
1M
1E
1N
1~
0O
0P
1Q
0R
0S
0T
1U
0V
0W
0X
1Y
1Z
#3820000
0"
05
0M
0E
0N
#3830000
1"
15
1M
1E
1N
0~
0}
0|
0{
0z
0y
1x
1A
0Z
1X
0Y
1V
1W
1T
0U
1R
1S
1O
0Q
0R
0T
0V
0X
1Z
1[
1J
1:
1#
#3840000
0"
05
0M
0E
0N
#3850000
1"
15
1M
1E
1N
1~
0O
1P
#3860000
0"
05
0M
0E
0N
#3870000
1"
15
1M
1E
1N
0~
1}
1O
#3880000
0"
05
0M
0E
0N
#3890000
1"
15
1M
1E
1N
1~
0O
0P
1Q
1R
#3900000
0"
05
0M
0E
0N
#3910000
1"
15
1M
1E
1N
0~
0}
1|
0R
0S
1O
0Q
1R
1S
1T
0T
#3920000
0"
05
0M
0E
0N
#3930000
1"
15
1M
1E
1N
1~
0O
1P
#3940000
0"
05
0M
0E
0N
#3950000
1"
15
1M
1E
1N
0~
1}
1O
#3960000
0"
05
0M
0E
0N
#3970000
1"
15
1M
1E
1N
1~
0O
0P
1Q
0R
0S
1T
#3980000
0"
05
0M
0E
0N
#3990000
1"
15
1M
1E
1N
0~
0}
0|
1{
0T
1U
1R
1S
1O
0Q
0R
1T
0U
1V
0V
